{
  "unknown": "Inconnu",
  "app_name": "Equido",
  "connection_loading": "Connexion en cours",
  "ok": "OK",
  "cancel": "Annuler",
  "confirm": "Confirmer",
  "horse": "Cheval",
  "welcom": "Bienvenue sur Equido !",
  "connection": "Connexion",
  "inscription": "Inscription",
  "wrong_sign_in": "Nom d'utilisateur ou mot de passe incorrecte",
  "retries": "OK, je réessaye",
  "valid_password_size": "La taille doit être comprise entre 8 et 30",
  "valid_password_space": "Le mot de passe ne doit pas contenir d'espace",
  "valid_username_size": "La taille doit être comprise entre 3 et 30",
  "mail_already_registered": "Ce mail est déjà enregistré",
  "username_already_registered": "Ce pseudo est déjà utilisé",
  "error": "Une erreur est survenue, merci de réessayer ultérieurement",
  "go_connection": "OK, je me connecte",
  "account_created_success": "Votre compte a été créé avec succès",
  "discover_app": "Découvrir Equido",
  "welcom_user": "{} /n bienvenue sur Equido !",
  "requiered_fields": "Champs obligatoires",
  "incorect_email": "Mail incorrecte",
  "registration_in_progress": "Inscription en cours",
  "password_not_same": "Les mots de passe doivent être identiques",
  "email": "Mail",
  "password": "Mot de passe",
  "password_repete": "Répétez le mot de passe",
  "username": "Nom d'utilisateur",
  "horses_empty": "Vous n'avez pas encore de cheval",
  "horses_empty_subtitle": "Il faut avoir au moins un cheval pour pouvoir lui attribuer des évènements",
  "add_outing": "Sortie",
  "add_training": "Entrainement",
  "add_care": "Soin",
  "add_event": "Ajouter un évènement",
  "meadow": "Près",
  "jumping": "Obstacle",
  "dressage": "Dressage",
  "liberty": "A pied",
  "outside": "Exterieur",
  "shoeing": "Ferrure",
  "vaccine": "Vaccin",
  "wormer": "Vermifuge",
  "other": "Autre",
  "sharing_horse": "Partage du cheval",
  "sharing": "Votre cheval a été partagé avec {}",
  "sharing_answer": "Souhaitez-vous partager votre cheval avec {} ?",
  "find_username": "Entrez le nom d'un utilisateur",
  "sharing_deleted": "Le partage a été supprimé",
  "sharing_delete_answer": "Voulez-vous vraiment arrêter le partage avec {} ?",
  "sharing_none": "Votre cheval n'est partagé avec aucun autre utilisateur",
  "sharing_number": "Votre cheval est partagé avez {} utilisateurs :",
  "sharing_horse_action": "Partager mon cheval",
  "sharing_subtitle": "*Les utilisateurs avec qui vous partagez votre cheval pourront ajouter des entraînements et des sorties au cheval. Ils auront également accès aux informations du cheval.",
  "how_many_time_training": "Combien de temps a duré votre entrainement ?",
  "choose_duration": "Choisissez la durée",
  "duration": "Durée",
  "training_note": "Un petit mot sur votre entrainement.",
  "care_note": "Ajouter une note pour ce soin.",
  "type": "Type",
  "start_hour": "Heure de début",
  "stop_hour": "Heure de fin",
  "note": "Note",
  "training_detail": "Détails de l'évènement",
  "user_add_event": "{} a ajouté cet évènement",
  "horse": "Cheval",
  "add_horse": "Ajouter un cheval",
  "horse_name": "Nom du cheval",
  "next": "Suivant",
  "additional_information": "Informations complémentaires",
  "gender": "Genre",
  "horse_size": "Taille (cm)",
  "horse_color": "Couleur",
  "horse_breed": "Race",
  "birthdate": "Date de naissance",
  "later": "Plus tard",
  "horse_supress": "Suppression du cheval",
  "horse_supress_subtitle": "*Lorsque vous supprimez un cheval, vous et les personnes qui partagent le cheval n'auront plus accès à ses informations. \nCette action est définitive, les données ne pourront être récupérées",
  "horse_supress_action": "Supprimer ce cheval",
  "birthdate_not_valid": "La date de naissance du cheval ne peut pas être dans le futur",
  "size_not_valid": "La taille de votre cheval ne peut pas dépasser les 1m50",
  "event_delete_answer": "Voulez-vous supprimer cet élément ?",
  "event_delete": "L'évènement a été supprimé",
  "event_delete_impossible": "Cet évènement ne peut être supprimé",
  "modify_information": "Modification des informations",
  "modification_information": "Modifier les informations",
  "modification_care_frequency": "Modifier la fréquence des soins",
  "horse_deleted": "Votre cheval a été supprimé",
  "horse_delete_answer": "Voulez-vous vraiment supprimer {} ?",
  "horse_delete_subtitle": "Cette action est définitive, vous et les personnes avec qui le cheval est partagé n'auront plus accès au cheval. Les données ne pourront être récupérées.",
  "horse_information": "Informations du cheval",
  "horse_care_frequency": "Fréquences des soins",
  "care_frequency_subtitle": "*Lorsque vous définissez la fréquence des soins, rendez-vous sur la page routine de votre cheval. Un graphique vous indique si vos soins sont à jour.",
  "proprietary": "Propriétaire",
  "name": "Nom",
  "shoeingDeadline": "Fréquence ferrure",
  "wormerDeadline": "Fréquence fermifuge",
  "vaccineDeadline": "Fréquence vaccin"
}